Command: spotify-this-songQuery Result: undefinedCommand: spotify-thi-songQuery Result: {"tracks":{"href":"https://api.spotify.com/v1/search?query=lullaby&type=track&offset=0&limit=1","items":[{"album":{"album_type":"album","artists":[{"external_urls":{"spotify":"https://open.spotify.com/artist/17dhUzylJyV8BKYs5WXBYK"},"href":"https://api.spotify.com/v1/artists/17dhUzylJyV8BKYs5WXBYK","id":"17dhUzylJyV8BKYs5WXBYK","name":"Zen Mindwaves","type":"artist","uri":"spotify:artist:17dhUzylJyV8BKYs5WXBYK"},{"external_urls":{"spotify":"https://open.spotify.com/artist/5lKaPKuNyNz6LN6NfM5vz1"},"href":"https://api.spotify.com/v1/artists/5lKaPKuNyNz6LN6NfM5vz1","id":"5lKaPKuNyNz6LN6NfM5vz1","name":"Binaural Beats","type":"artist","uri":"spotify:artist:5lKaPKuNyNz6LN6NfM5vz1"},{"external_urls":{"spotify":"https://open.spotify.com/artist/09zG0khQiBKmfVE7xSuWTw"},"href":"https://api.spotify.com/v1/artists/09zG0khQiBKmfVE7xSuWTw","id":"09zG0khQiBKmfVE7xSuWTw","name":"Binaural Beat Therapy","type":"artist","uri":"spotify:artist:09zG0khQiBKmfVE7xSuWTw"}],"available_markets":["AD","AE","AR","AT","AU","BE","BG","BH","BO","BR","CA","CH","CL","CO","CR","CY","CZ","DE","DK","DO","DZ","EC","EE","EG","ES","FI","FR","GB","GR","GT","HK","HN","HU","ID","IE","IL","IN","IS","IT","JO","JP","KW","LB","LI","LT","LU","LV","MA","MC","MT","MX","MY","NI","NL","NO","NZ","OM","PA","PE","PH","PL","PS","PT","PY","QA","RO","SA","SE","SG","SK","SV","TH","TN","TR","TW","US","UY","VN","ZA"],"external_urls":{"spotify":"https://open.spotify.com/album/7GjCoRqgst6NyUH1o92OOz"},"href":"https://api.spotify.com/v1/albums/7GjCoRqgst6NyUH1o92OOz","id":"7GjCoRqgst6NyUH1o92OOz","images":[{"height":640,"url":"https://i.scdn.co/image/bf2c45a0aea2d6b16aef41bc1b2476e74ca03b0f","width":640},{"height":300,"url":"https://i.scdn.co/image/d48caf1f57bbbec0dedda6b0b99cf654007ff7ba","width":300},{"height":64,"url":"https://i.scdn.co/image/1423029a3a298ae2881d5591e957e0576d1bd772","width":64}],"name":"Brown Noise, White Noise, and Binaural Beats Entrainment (Loopable with no Fade)","release_date":"2015-05-26","release_date_precision":"day","total_tracks":7,"type":"album","uri":"spotify:album:7GjCoRqgst6NyUH1o92OOz"},"artists":[{"external_urls":{"spotify":"https://open.spotify.com/artist/0zaYnC5jWu6BKBz3vnNyZ6"},"href":"https://api.spotify.com/v1/artists/0zaYnC5jWu6BKBz3vnNyZ6","id":"0zaYnC5jWu6BKBz3vnNyZ6","name":"White Noise Meditation","type":"artist","uri":"spotify:artist:0zaYnC5jWu6BKBz3vnNyZ6"},{"external_urls":{"spotify":"https://open.spotify.com/artist/4OGJOCR3m1HC87JGx8cuEQ"},"href":"https://api.spotify.com/v1/artists/4OGJOCR3m1HC87JGx8cuEQ","id":"4OGJOCR3m1HC87JGx8cuEQ","name":"Lullaby Land","type":"artist","uri":"spotify:artist:4OGJOCR3m1HC87JGx8cuEQ"},{"external_urls":{"spotify":"https://open.spotify.com/artist/7DCv5iEOfzc6EEe4GbFcOM"},"href":"https://api.spotify.com/v1/artists/7DCv5iEOfzc6EEe4GbFcOM","id":"7DCv5iEOfzc6EEe4GbFcOM","name":"White Noise Babies","type":"artist","uri":"spotify:artist:7DCv5iEOfzc6EEe4GbFcOM"},{"external_urls":{"spotify":"https://open.spotify.com/artist/5SqxgH3k1AkSVkpdTGYudY"},"href":"https://api.spotify.com/v1/artists/5SqxgH3k1AkSVkpdTGYudY","id":"5SqxgH3k1AkSVkpdTGYudY","name":"Calming Sounds","type":"artist","uri":"spotify:artist:5SqxgH3k1AkSVkpdTGYudY"},{"external_urls":{"spotify":"https://open.spotify.com/artist/7nfSsLcGgwpzJ7E8gZmWXe"},"href":"https://api.spotify.com/v1/artists/7nfSsLcGgwpzJ7E8gZmWXe","id":"7nfSsLcGgwpzJ7E8gZmWXe","name":"Canciones De Cuna","type":"artist","uri":"spotify:artist:7nfSsLcGgwpzJ7E8gZmWXe"}],"available_markets":["AD","AE","AR","AT","AU","BE","BG","BH","BO","BR","CA","CH","CL","CO","CR","CY","CZ","DE","DK","DO","DZ","EC","EE","EG","ES","FI","FR","GB","GR","GT","HK","HN","HU","ID","IE","IL","IN","IS","IT","JO","JP","KW","LB","LI","LT","LU","LV","MA","MC","MT","MX","MY","NI","NL","NO","NZ","OM","PA","PE","PH","PL","PS","PT","PY","QA","RO","SA","SE","SG","SK","SV","TH","TN","TR","TW","US","UY","VN","ZA"],"disc_number":1,"duration_ms":73886,"explicit":false,"external_ids":{"isrc":"QMHNS1300217"},"external_urls":{"spotify":"https://open.spotify.com/track/67iF3DdebmElASIGoebYt1"},"href":"https://api.spotify.com/v1/tracks/67iF3DdebmElASIGoebYt1","id":"67iF3DdebmElASIGoebYt1","is_local":false,"name":"Brown Noise - Loopable with No Fade","popularity":77,"preview_url":"https://p.scdn.co/mp3-preview/f5a34723fd65f889af076a83b9e698eb8b03a17f?cid=74858b833f7d41248a7189f4de9720f9","track_number":1,"type":"track","uri":"spotify:track:67iF3DdebmElASIGoebYt1"}],"limit":1,"next":"https://api.spotify.com/v1/search?query=lullaby&type=track&offset=1&limit=1","offset":0,"previous":null,"total":276254}}Command: movie-this--- Query Result: undefinedCommand: movies-this--- Query Result: ""Command: movie-this--- Query Result: undefinedCommand: movies-this--- Query Result: "{\"Title\":\"Titanic\",\"Year\":\"1997\",\"Rated\":\"PG-13\",\"Released\":\"19 Dec 1997\",\"Runtime\":\"194 min\",\"Genre\":\"Drama, Romance\",\"Director\":\"James Cameron\",\"Writer\":\"James Cameron\",\"Actors\":\"Leonardo DiCaprio, Kate Winslet, Billy Zane, Kathy Bates\",\"Plot\":\"A seventeen-year-old aristocrat falls in love with a kind but poor artist aboard the luxurious, ill-fated R.M.S. Titanic.\",\"Language\":\"English, Swedish, Italian\",\"Country\":\"USA\",\"Awards\":\"Won 11 Oscars. Another 111 wins & 77 nominations.\",\"Poster\":\"https://m.media-amazon.com/images/M/MV5BMDdmZGU3NDQtY2E5My00ZTliLWIzOTUtMTY4ZGI1YjdiNjk3XkEyXkFqcGdeQXVyNTA4NzY1MzY@._V1_SX300.jpg\",\"Ratings\":[{\"Source\":\"Internet Movie Database\",\"Value\":\"7.8/10\"},{\"Source\":\"Rotten Tomatoes\",\"Value\":\"89%\"},{\"Source\":\"Metacritic\",\"Value\":\"75/100\"}],\"Metascore\":\"75\",\"imdbRating\":\"7.8\",\"imdbVotes\":\"946,032\",\"imdbID\":\"tt0120338\",\"Type\":\"movie\",\"DVD\":\"10 Sep 2012\",\"BoxOffice\":\"N/A\",\"Production\":\"Paramount Pictures\",\"Website\":\"http://www.titanicmovie.com/\",\"Response\":\"True\"}"